soclib/platform/topcells/caba-vgmn-synchronization_mwmr_1_mipsel/system_trace.vcd
$date
     Feb 06, 2009       16:57:32
$end

$version
              SystemC 2.2.0 --- May 14 2008 17:19:00
$end

$timescale
     1 ps
$end

$scope module SystemC $end
$var wire    1  aaa  CLK       $end
$var wire    1  aab  RESETN       $end
$var wire    1  aac  vci_cache_rspack       $end
$var wire    1  aad  vci_cache_rspval       $end
$var wire   32  aae  vci_cache_rdata [31:0]  $end
$var wire    1  aaf  vci_cache_reop       $end
$var wire    1  aag  vci_cache_rerror       $end
$var wire    8  aah  vci_cache_rsrcid [7:0]  $end
$var wire    1  aai  vci_cache_rtrdid       $end
$var wire    1  aaj  vci_cache_rpktid       $end
$var wire    1  aak  vci_cache_cmdack       $end
$var wire    1  aal  vci_cache_cmdval       $end
$var wire   32  aam  vci_cache_address [31:0]  $end
$var wire    4  aan  vci_cache_be [3:0]  $end
$var wire    2  aao  vci_cache_cmd [1:0]  $end
$var wire    1  aap  vci_cache_contig       $end
$var wire   32  aaq  vci_cache_wdata [31:0]  $end
$var wire    1  aar  vci_cache_eop       $end
$var wire    1  aas  vci_cache_cons       $end
$var wire    8  aat  vci_cache_plen [7:0]  $end
$var wire    1  aau  vci_cache_wrap       $end
$var wire    1  aav  vci_cache_cfixed       $end
$var wire    1  aaw  vci_cache_clen       $end
$var wire    8  aax  vci_cache_srcid [7:0]  $end
$var wire    1  aay  vci_cache_trdid       $end
$var wire    1  aaz  vci_cache_pktid       $end
$var wire    1  aba  vci_mwmr_data_rspack       $end
$var wire    1  abb  vci_mwmr_data_rspval       $end
$var wire   32  abc  vci_mwmr_data_rdata [31:0]  $end
$var wire    1  abd  vci_mwmr_data_reop       $end
$var wire    1  abe  vci_mwmr_data_rerror       $end
$var wire    8  abf  vci_mwmr_data_rsrcid [7:0]  $end
$var wire    1  abg  vci_mwmr_data_rtrdid       $end
$var wire    1  abh  vci_mwmr_data_rpktid       $end
$var wire    1  abi  vci_mwmr_data_cmdack       $end
$var wire    1  abj  vci_mwmr_data_cmdval       $end
$var wire   32  abk  vci_mwmr_data_address [31:0]  $end
$var wire    4  abl  vci_mwmr_data_be [3:0]  $end
$var wire    2  abm  vci_mwmr_data_cmd [1:0]  $end
$var wire    1  abn  vci_mwmr_data_contig       $end
$var wire   32  abo  vci_mwmr_data_wdata [31:0]  $end
$var wire    1  abp  vci_mwmr_data_eop       $end
$var wire    1  abq  vci_mwmr_data_cons       $end
$var wire    8  abr  vci_mwmr_data_plen [7:0]  $end
$var wire    1  abs  vci_mwmr_data_wrap       $end
$var wire    1  abt  vci_mwmr_data_cfixed       $end
$var wire    1  abu  vci_mwmr_data_clen       $end
$var wire    8  abv  vci_mwmr_data_srcid [7:0]  $end
$var wire    1  abw  vci_mwmr_data_trdid       $end
$var wire    1  abx  vci_mwmr_data_pktid       $end
$var wire    1  aby  vci_locks_rspack       $end
$var wire    1  abz  vci_locks_rspval       $end
$var wire   32  aca  vci_locks_rdata [31:0]  $end
$var wire    1  acb  vci_locks_reop       $end
$var wire    1  acc  vci_locks_rerror       $end
$var wire    8  acd  vci_locks_rsrcid [7:0]  $end
$var wire    1  ace  vci_locks_rtrdid       $end
$var wire    1  acf  vci_locks_rpktid       $end
$var wire    1  acg  vci_locks_cmdack       $end
$var wire    1  ach  vci_locks_cmdval       $end
$var wire   32  aci  vci_locks_address [31:0]  $end
$var wire    4  acj  vci_locks_be [3:0]  $end
$var wire    2  ack  vci_locks_cmd [1:0]  $end
$var wire    1  acl  vci_locks_contig       $end
$var wire   32  acm  vci_locks_wdata [31:0]  $end
$var wire    1  acn  vci_locks_eop       $end
$var wire    1  aco  vci_locks_cons       $end
$var wire    8  acp  vci_locks_plen [7:0]  $end
$var wire    1  acq  vci_locks_wrap       $end
$var wire    1  acr  vci_locks_cfixed       $end
$var wire    1  acs  vci_locks_clen       $end
$var wire    8  act  vci_locks_srcid [7:0]  $end
$var wire    1  acu  vci_locks_trdid       $end
$var wire    1  acv  vci_locks_pktid       $end
$upscope $end
$enddefinitions  $end

$comment
All initial values are dumped below at time 0 sec = 0 timescale units.
$end

$dumpvars
1aaa
0aab
0aac
0aad
b0 aae
0aaf
0aag
b0 aah
0aai
0aaj
0aak
0aal
b0 aam
b0 aan
b0 aao
0aap
b0 aaq
0aar
0aas
b0 aat
0aau
0aav
0aaw
b0 aax
0aay
0aaz
0aba
0abb
b0 abc
0abd
0abe
b0 abf
0abg
0abh
0abi
0abj
b0 abk
b0 abl
b0 abm
0abn
b0 abo
0abp
0abq
b0 abr
0abs
0abt
0abu
b0 abv
0abw
0abx
0aby
0abz
b0 aca
0acb
0acc
b0 acd
0ace
0acf
0acg
0ach
b0 aci
b0 acj
b0 ack
0acl
b0 acm
0acn
0aco
b0 acp
0acq
0acr
0acs
b0 act
0acu
0acv
$end

#500
0aaa
1aac
1aak
b10 aao
1aba
1abi
1aby
1acg

#1000
1aaa
1aab

#1500
0aaa

#2000
1aaa

#2500
0aaa

#3000
1aaa

#3500
0aaa

#4000
1aaa

#4500
0aaa

#5000
1aaa

#5500
0aaa

#6000
1aaa

#6500
0aaa

#7000
1aaa

#7500
0aaa

#8000
1aaa

#8500
0aaa

#9000
1aaa

#9500
0aaa

#10000
1aaa

#10500
0aaa
1aal
b10111111110000000000000000000000 aam
b1111 aan
b1 aao
1aap
b10000 aat

#11000
1aaa

#11500
0aaa
b10111111110000000000000000000100 aam

#12000
1aaa

#12500
0aaa
b10111111110000000000000000001000 aam

#13000
1aaa

#13500
0aaa
b10111111110000000000000000001100 aam
1aar

#14000
1aaa

#14500
0aaa
0aal
b0 aam
b0 aan
b10 aao
0aap
0aar
b0 aat

#15000
1aaa

#15500
0aaa

#16000
1aaa

#16500
0aaa

#17000
1aaa

#17500
0aaa
1aad
b100100000010000000000000000000 aae

#18000
1aaa

#18500
0aaa
b1000000100010000110000000000000 aae

#19000
1aaa

#19500
0aaa
b1000000000010000111100000000000 aae

#20000
1aaa

#20500
0aaa
b111100000111010001000000000010 aae
1aaf

#21000
1aaa

#21500
0aaa
0aad

#22000
1aaa

#22500
0aaa

#23000
1aaa

#23500
0aaa

#24000
1aaa

#24500
0aaa

#25000
1aaa

#25500
0aaa

#26000
1aaa

#26500
0aaa

#27000
1aaa

#27500
0aaa

#28000
1aaa

#28500
0aaa

#29000
1aaa

#29500
0aaa
1aal
b10111111110000000000000000010000 aam
b1111 aan
b1 aao
1aap
b10000 aat

#30000
1aaa

#30500
0aaa
b10111111110000000000000000010100 aam

#31000
1aaa

#31500
0aaa
b10111111110000000000000000011000 aam

#32000
1aaa

#32500
0aaa
b10111111110000000000000000011100 aam
1aar

#33000
1aaa

#33500
0aaa
0aal
b0 aam
b0 aan
b10 aao
0aap
0aar
b0 aat

#34000
1aaa

#34500
0aaa

#35000
1aaa

#35500
0aaa

#36000
1aaa

#36500
0aaa
1aad
b100111101111011111111111100000 aae
0aaf

#37000
1aaa

#37500
0aaa
b110001000010000000001111111111 aae

#38000
1aaa

#38500
0aaa
b10000100001010000000 aae

#39000
1aaa

#39500
0aaa
b11101010001110100000100011 aae
1aaf

#40000
1aaa

#40500
0aaa
0aad

#41000
1aaa

#41500
0aaa

#42000
1aaa

#42500
0aaa

#43000
1aaa

#43500
0aaa

#44000
1aaa

#44500
0aaa

#45000
1aaa

#45500
0aaa

#46000
1aaa

#46500
0aaa

#47000
1aaa

#47500
0aaa

#48000
1aaa

#48500
0aaa
1aal
b10111111110000000000000000100000 aam
b1111 aan
b1 aao
1aap
b10000 aat

#49000
1aaa

#49500
0aaa
b10111111110000000000000000100100 aam

#50000
1aaa

#50500
0aaa
b10111111110000000000000000101000 aam

#51000
1aaa

#51500
0aaa
b10111111110000000000000000101100 aam
1aar

#52000
1aaa

#52500
0aaa
0aal
b0 aam
b0 aan
b10 aao
0aap
0aar
b0 aat

#53000
1aaa

#53500
0aaa

#54000
1aaa

#54500
0aaa

#55000
1aaa

#55500
0aaa
1aad
b111100000111000001000000000000 aae
0aaf

#56000
1aaa

#56500
0aaa
b100111100111000000001101100000 aae

#57000
1aaa

#57500
0aaa
b111100000010000000000001000000 aae

#58000
1aaa

#58500
0aaa
b100101000010000000000000000000 aae
1aaf

#59000
1aaa

#59500
0aaa
0aad

#60000
1aaa

#60500
0aaa

#61000
1aaa

#61500
0aaa

#62000
1aaa

#62500
0aaa

#63000
1aaa

#63500
0aaa

#64000
1aaa

#64500
0aaa

#65000
1aaa

#65500
0aaa

#66000
1aaa

#66500
0aaa

#67000
1aaa

#67500
0aaa
1aal
b10111111110000000000000000110000 aam
b1111 aan
b1 aao
1aap
b10000 aat

#68000
1aaa

#68500
0aaa
b10111111110000000000000000110100 aam

#69000
1aaa

#69500
0aaa
b10111111110000000000000000111000 aam

#70000
1aaa

#70500
0aaa
b10111111110000000000000000111100 aam
1aar

#71000
1aaa

#71500
0aaa
0aal
b0 aam
b0 aan
b10 aao
0aap
0aar
b0 aat

#72000
1aaa

#72500
0aaa

#73000
1aaa

#73500
0aaa

#74000
1aaa

#74500
0aaa
1aad
b1000000000000000000001000 aae
0aaf

#75000
1aaa

#75500
0aaa
b0 aae

#76000
1aaa

#76500
0aaa

#77000
1aaa

#77500
0aaa
1aaf

#78000
1aaa

#78500
0aaa
0aad

#79000
1aaa

#79500
0aaa

#80000
1aaa

#80500
0aaa

#81000
1aaa

#81500
0aaa

#82000
1aaa

#82500
0aaa

#83000
1aaa

#83500
0aaa

#84000
1aaa

#84500
0aaa
1aal
b10000000000000000000000 aam
b1111 aan
b1 aao
1aap
b10000 aat

#85000
1aaa

#85500
0aaa
b10000000000000000000100 aam

#86000
1aaa

#86500
0aaa
b10000000000000000001000 aam

#87000
1aaa

#87500
0aaa
b10000000000000000001100 aam
1aar

#88000
1aaa

#88500
0aaa
0aal
b0 aam
b0 aan
b10 aao
0aap
0aar
b0 aat

#89000
1aaa

#89500
0aaa

#90000
1aaa

#90500
0aaa

#91000
1aaa

#91500
0aaa
1aad
b100111101111011111111111010000 aae
0aaf

#92000
1aaa

#92500
0aaa
b10101111101100010000000000011100 aae

#93000
1aaa

#93500
0aaa
b111100000100010010000000100000 aae

#94000
1aaa

#94500
0aaa
b10101111101100000000000000011000 aae
1aaf

#95000
1aaa

#95500
0aaa
0aad

#96000
1aaa

#96500
0aaa

#97000
1aaa

#97500
0aaa

#98000
1aaa

#98500
0aaa

#99000
1aaa

#99500
0aaa

#100000
1aaa

#100500
0aaa

#101000
1aaa

#101500
0aaa

#102000
1aaa

#102500
0aaa
1aal
b10000000000011111111111001100 aam
b1111 aan
1aar
b100 aat
1aaz

#103000
1aaa

#103500
0aaa
0aal
b0 aam
b0 aan
0aar
b0 aat
0aaz

#104000
1aaa

#104500
0aaa

#105000
1aaa

#105500
0aaa

#106000
1aaa

#106500
0aaa

#107000
1aaa

#107500
0aaa

#108000
1aaa

#108500
0aaa

#109000
1aaa

#109500
0aaa
1aad
b0 aae
1aaj

#110000
1aaa

#110500
0aaa
0aad

#111000
1aaa

#111500
0aaa
1aal
b10000000000000000010000 aam
b1111 aan
b1 aao
1aap
b10000 aat

#112000
1aaa

#112500
0aaa
b10000000000000000010100 aam

#113000
1aaa

#113500
0aaa
b10000000000000000011000 aam

#114000
1aaa

#114500
0aaa
b10000000000000000011100 aam
1aar

#115000
1aaa

#115500
0aaa
0aal
b0 aam
b0 aan
b10 aao
0aap
0aar
b0 aat

#116000
1aaa

#116500
0aaa

#117000
1aaa

#117500
0aaa

#118000
1aaa

#118500
0aaa
1aad
b110110001001000001000000000000 aae
0aaf
0aaj

#119000
1aaa

#119500
0aaa
b111100000100000011000000100000 aae

#120000
1aaa

#120500
0aaa
b100100000001010000000000000100 aae

#121000
1aaa

#121500
0aaa
b100100000001100000000001000000 aae
1aaf

#122000
1aaa

#122500
0aaa
0aad

#123000
1aaa

#123500
0aaa

#124000
1aaa

#124500
0aaa
1aal
b10000000000011111111111001000 aam
b1111 aan
1aar
b100 aat
1aaz

#125000
1aaa

#125500
0aaa
0aal
b0 aam
b0 aan
0aar
b0 aat
0aaz

#126000
1aaa

#126500
0aaa

#127000
1aaa

#127500
0aaa

#128000
1aaa

#128500
0aaa

#129000
1aaa

#129500
0aaa

#130000
1aaa

#130500
0aaa

#131000
1aaa

#131500
0aaa
1aad
b0 aae
1aaj

#132000
1aaa

#132500
0aaa
0aad

#133000
1aaa

#133500
0aaa
1aal
b10000000000000000100000 aam
b1111 aan
b1 aao
1aap
b10000 aat

#134000
1aaa

#134500
0aaa
b10000000000000000100100 aam

#135000
1aaa

#135500
0aaa
b10000000000000000101000 aam

#136000
1aaa

#136500
0aaa
b10000000000000000101100 aam
1aar

#137000
1aaa

#137500
0aaa
0aal
b0 aam
b0 aan
b10 aao
0aap
0aar
b0 aat

#138000
1aaa

#138500
0aaa

#139000
1aaa

#139500
0aaa

#140000
1aaa

#140500
0aaa
1aad
b111100000001110010000000100000 aae
0aaf
0aaj

#141000
1aaa

#141500
0aaa
b10101111101111110000000000101000 aae

#142000
1aaa

#142500
0aaa
b10101111101100110000000000100100 aae

#143000
1aaa

#143500
0aaa
b10101111101100100000000000100000 aae
1aaf

#144000
1aaa

#144500
0aaa
0aad

#145000
1aaa

#145500
0aaa

#146000
1aaa

#146500
0aaa

#147000
1aaa

#147500
0aaa

#148000
1aaa

#148500
0aaa

#149000
1aaa

#149500
0aaa

#150000
1aaa

#150500
0aaa

#151000
1aaa

#151500
0aaa
1aal
b10000000000011111111111011000 aam
b1111 aan
1aar
b100 aat
1aaz

#152000
1aaa

#152500
0aaa
0aal
b0 aam
b0 aan
0aar
b0 aat
0aaz

#153000
1aaa

#153500
0aaa

#154000
1aaa

#154500
0aaa

#155000
1aaa

#155500
0aaa

#156000
1aaa

#156500
0aaa

#157000
1aaa

#157500
0aaa

#158000
1aaa

#158500
0aaa
1aad
b0 aae
1aaj

#159000
1aaa

#159500
0aaa
0aad

#160000
1aaa

#160500
0aaa
1aal
b10000000000000000110000 aam
b1111 aan
b1 aao
1aap
b10000 aat

#161000
1aaa

#161500
0aaa
b10000000000000000110100 aam

#162000
1aaa

#162500
0aaa
b10000000000000000111000 aam

#163000
1aaa

#163500
0aaa
b10000000000000000111100 aam
1aar

#164000
1aaa

#164500
0aaa
0aal
b0 aam
b0 aan
b10 aao
0aap
0aar
b0 aat

#165000
1aaa

#165500
0aaa

#166000
1aaa

#166500
0aaa

#167000
1aaa

#167500
0aaa
1aad
b10101111101100000000000000010000 aae
0aaf
0aaj

#168000
1aaa

#168500
0aaa
b1100000100000000000100011001 aae

#169000
1aaa

#169500
0aaa
b110110001100100001000000000000 aae

#170000
1aaa

#170500
0aaa
b110110000100000000000000100000 aae
1aaf

#171000
1aaa

#171500
0aaa
0aad

#172000
1aaa

#172500
0aaa

#173000
1aaa

#173500
0aaa
1aal
b10000000000011111111111010100 aam
b1111 aan
1aar
b100 aat
1aaz

#174000
1aaa

#174500
0aaa
0aal
b0 aam
b0 aan
0aar
b0 aat
0aaz

#175000
1aaa

#175500
0aaa

#176000
1aaa

#176500
0aaa

#177000
1aaa

#177500
0aaa

#178000
1aaa

#178500
0aaa

#179000
1aaa

#179500
0aaa

#180000
1aaa

#180500
0aaa
1aad
b0 aae
1aaj

#181000
1aaa

#181500
0aaa
0aad

#182000
1aaa

#182500
0aaa
1aal
b10000000000010001100000 aam
b1111 aan
b1 aao
1aap
b10000 aat

#183000
1aaa

#183500
0aaa
b10000000000010001100100 aam

#184000
1aaa

#184500
0aaa
b10000000000010001101000 aam

#185000
1aaa

#185500
0aaa
b10000000000010001101100 aam
1aar

#186000
1aaa

#186500
0aaa
0aal
b0 aam
b0 aan
b10 aao
0aap
0aar
b0 aat

#187000
1aaa

#187500
0aaa

#188000
1aaa

#188500
0aaa

#189000
1aaa

#189500
0aaa
1aad
0aaf
0aaj

#190000
1aaa

#190500
0aaa
b101001100000000000011000 aae

#191000
1aaa

#191500
0aaa
b10001111101000100000000000010000 aae

#192000
1aaa

#192500
0aaa
b10101100100000000000000000010000 aae
1aaf

#193000
1aaa

#193500
0aaa
0aad

#194000
1aaa

#194500
0aaa

#195000
1aaa

#195500
0aaa
1aal
b10000000000011111111111010000 aam
b1111 aan
1aar
b100 aat
1aaz

#196000
1aaa

#196500
0aaa
0aal
b0 aam
b0 aan
0aar
b0 aat
0aaz

#197000
1aaa

#197500
0aaa

#198000
1aaa

#198500
0aaa

#199000
1aaa

#199500
0aaa

#200000
1aaa

#200500
0aaa

#201000
1aaa

#201500
0aaa

#202000
1aaa

#202500
0aaa
1aad
b0 aae
1aaj

#203000
1aaa

#203500
0aaa
0aad

#204000
1aaa

#204500
0aaa
1aal
b10000000000011111111111000000 aam
b1111 aan
b110000001000000000000000000000 aaq
1aar
b100 aat
1aaz

#205000
1aaa

#205500
0aaa
0aal
b0 aam
b0 aan
b0 aaq
0aar
b0 aat
0aaz

#206000
1aaa

#206500
0aaa

#207000
1aaa

#207500
0aaa

#208000
1aaa

#208500
0aaa

#209000
1aaa

#209500
0aaa

#210000
1aaa

#210500
0aaa

#211000
1aaa

#211500
0aaa
1aad

#212000
1aaa

#212500
0aaa
0aad

#213000
1aaa

#213500
0aaa
1aal
b10000000000011111111111000000 aam
b1111 aan
b1 aao
1aap
b10000 aat

#214000
1aaa

#214500
0aaa
b10000000000011111111111000100 aam

#215000
1aaa

#215500
0aaa
b10000000000011111111111001000 aam

#216000
1aaa

#216500
0aaa
b10000000000011111111111001100 aam
1aar

#217000
1aaa

#217500
0aaa
0aal
b0 aam
b0 aan
b10 aao
0aap
0aar
b0 aat

#218000
1aaa

#218500
0aaa

#219000
1aaa

#219500
0aaa

#220000
1aaa

#220500
0aaa
1aad
b110000001000000000000000000000 aae
0aaf
0aaj

#221000
1aaa

#221500
0aaa
b0 aae

#222000
1aaa

#222500
0aaa

#223000
1aaa

#223500
0aaa
1aaf

#224000
1aaa

#224500
0aaa
0aad

#225000
1aaa

#225500
0aaa

#226000
1aaa

#226500
0aaa

#227000
1aaa

#227500
0aaa

#228000
1aaa

#228500
0aaa

#229000
1aaa

#229500
0aaa
1aal
b10000000000010001110000 aam
b1111 aan
b1 aao
1aap
b10000 aat

#230000
1aaa

#230500
0aaa
b10000000000010001110100 aam

#231000
1aaa

#231500
0aaa
b10000000000010001111000 aam

#232000
1aaa

#232500
0aaa
b10000000000010001111100 aam
1aar

#233000
1aaa

#233500
0aaa
0aal
b0 aam
b0 aan
b10 aao
0aap
0aar
b0 aat

#234000
1aaa

#234500
0aaa

#235000
1aaa

#235500
0aaa

#236000
1aaa

#236500
0aaa
1aad
b10101100100001110000000000001000 aae
0aaf

#237000
1aaa

#237500
0aaa
b10101100100000000000000000010100 aae

#238000
1aaa

#238500
0aaa
b10101100100000100000000000001100 aae

#239000
1aaa

#239500
0aaa
b10101100100000000000000000011000 aae
1aaf

#240000
1aaa

#240500
0aaa
0aad

#241000
1aaa

#241500
0aaa

#242000
1aaa

#242500
0aaa
1aal
b100000001000000001000000010000 aam
b1111 aan
1aar
b100 aat
1aaz

#243000
1aaa

#243500
0aaa
0aal
b0 aam
b0 aan
0aar
b0 aat
0aaz

#244000
1aaa

#244500
0aaa

#245000
1aaa

#245500
0aaa
1abj
b100000001000000001000000010000 abk
b1111 abl
b10 abm
1abp
b100 abr
1abx

#246000
1aaa

#246500
0aaa
1abb
1abd
1abh
0abi
0abj

#247000
1aaa

#247500
0aaa
0abb
1abi

#248000
1aaa

#248500
0aaa

#249000
1aaa

#249500
0aaa
1aad
b0 aae
1aaj

#250000
1aaa

#250500
0aaa
0aad

#251000
1aaa

#251500
0aaa
1aal
b10000000000010010000000 aam
b1111 aan
b1 aao
1aap
b10000 aat

#252000
1aaa

#252500
0aaa
b10000000000010010000100 aam

#253000
1aaa

#253500
0aaa
b10000000000010010001000 aam

#254000
1aaa

#254500
0aaa
b10000000000010010001100 aam
1aar

#255000
1aaa

#255500
0aaa
0aal
b0 aam
b0 aan
b10 aao
0aap
0aar
b0 aat

#256000
1aaa

#256500
0aaa

#257000
1aaa

#257500
0aaa

#258000
1aaa

#258500
0aaa
1aad
b10101100100001010000000000000000 aae
0aaf
0aaj

#259000
1aaa

#259500
0aaa
b10101100100000000000000000011100 aae

#260000
1aaa

#260500
0aaa
b11000000010010 aae

#261000
1aaa

#261500
0aaa
b11111000000000000000001000 aae
1aaf

#262000
1aaa

#262500
0aaa
0aad

#263000
1aaa

#263500
0aaa

#264000
1aaa

#264500
0aaa
1aal
b100000001000000001000000001000 aam
b1111 aan
b100000001000000000000000000000 aaq
1aar
b100 aat
1aaz

#265000
1aaa

#265500
0aaa
0aal
b0 aam
b0 aan
b0 aaq
0aar
b0 aat
0aaz

#266000
1aaa

#266500
0aaa

#267000
1aaa

#267500
0aaa
1abj
b100000001000000001000000001000 abk
b100000001000000000000000000000 abo

#268000
1aaa

#268500
0aaa
1abb
0abi
0abj

#269000
1aaa

#269500
0aaa
0abb
1abi

#270000
1aaa

#270500
0aaa

#271000
1aaa

#271500
0aaa
1aad
b0 aae
1aaj

#272000
1aaa

#272500
0aaa
0aad

#273000
1aaa

#273500
0aaa
1aal
b10000000000010010010000 aam
b1111 aan
b1 aao
1aap
b10000 aat

#274000
1aaa

#274500
0aaa
b10000000000010010010100 aam

#275000
1aaa

#275500
0aaa
b10000000000010010011000 aam

#276000
1aaa

#276500
0aaa
b10000000000010010011100 aam
1aar

#277000
1aaa

#277500
0aaa
0aal
b0 aam
b0 aan
b10 aao
0aap
0aar
b0 aat

#278000
1aaa

#278500
0aaa

#279000
1aaa

#279500
0aaa

#280000
1aaa

#280500
0aaa
1aad
b10101100100001100000000000000100 aae
0aaf
0aaj

#281000
1aaa

#281500
0aaa
b1010010100010000000 aae

#282000
1aaa

#282500
0aaa
b100001010010000000100001 aae

#283000
1aaa

#283500
0aaa
b10101100100001100000000000000000 aae
1aaf

#284000
1aaa

#284500
0aaa
0aad

#285000
1aaa

#285500
0aaa

#286000
1aaa

#286500
0aaa
1aal
b100000001000000001000000010100 aam
b1111 aan
1aar
b100 aat
1aaz

#287000
1aaa

#287500
0aaa
0aal
b0 aam
b0 aan
0aar
b0 aat
0aaz

#288000
1aaa

#288500
0aaa

#289000
1aaa

#289500
0aaa
1abj
b100000001000000001000000010100 abk
b0 abo

#290000
1aaa

#290500
0aaa
1abb
0abi
0abj

#291000
1aaa

#291500
0aaa
0abb
1abi

#292000
1aaa

#292500
0aaa

#293000
1aaa

#293500
0aaa
1aad
b0 aae
1aaj

#294000
1aaa

#294500
0aaa
0aad

#295000
1aaa

#295500
0aaa
1aal
b10000000000000001000000 aam
b1111 aan
b1 aao
1aap
b10000 aat

#296000
1aaa

#296500
0aaa
b10000000000000001000100 aam

#297000
1aaa

#297500
0aaa
b10000000000000001001000 aam

#298000
1aaa

#298500
0aaa
b10000000000000001001100 aam
1aar

#299000
1aaa

#299500
0aaa
0aal
b0 aam
b0 aan
b10 aao
0aap
0aar
b0 aat

#300000
1aaa

#300500
0aaa

#301000
1aaa

#301500
0aaa

#302000
1aaa

#302500
0aaa
1aad
b100100000001100000000001000000 aae
0aaf
0aaj

#303000
1aaa

#303500
0aaa
b110110001001110000010000000000 aae

#304000
1aaa

#304500
0aaa
b110110001001000001001000000000 aae

#305000
1aaa

#305500
0aaa
b100100000001010000000000000100 aae
1aaf

#306000
1aaa

#306500
0aaa
0aad

#307000
1aaa

#307500
0aaa

#308000
1aaa

#308500
0aaa
1aal
b100000001000000001000000001100 aam
b1111 aan
b110000001000000000000000000000 aaq
1aar
b100 aat
1aaz

#309000
1aaa

#309500
0aaa
0aal
b0 aam
b0 aan
b0 aaq
0aar
b0 aat
0aaz

#310000
1aaa

#310500
0aaa

#311000
1aaa

#311500
0aaa
1abj
b100000001000000001000000001100 abk
b110000001000000000000000000000 abo

#312000
1aaa

#312500
0aaa
1abb
0abi
0abj

#313000
1aaa

#313500
0aaa
0abb
1abi

#314000
1aaa

#314500
0aaa

#315000
1aaa

#315500
0aaa
1aad
b0 aae
1aaj

#316000
1aaa

#316500
0aaa
0aad

#317000
1aaa

#317500
0aaa
1aal
b10000000000000001010000 aam
b1111 aan
b1 aao
1aap
b10000 aat

#318000
1aaa

#318500
0aaa
b10000000000000001010100 aam

#319000
1aaa

#319500
0aaa
b10000000000000001011000 aam

#320000
1aaa

#320500
0aaa
b10000000000000001011100 aam
1aar

#321000
1aaa

#321500
0aaa
0aal
b0 aam
b0 aan
b10 aao
0aap
0aar
b0 aat

#322000
1aaa

#322500
0aaa

#323000
1aaa

#323500
0aaa

#324000
1aaa

#324500
0aaa
1aad
b1100000100000000000100011001 aae
0aaf
0aaj

#325000
1aaa

#325500
0aaa
b10101111101100000000000000010000 aae

#326000
1aaa

#326500
0aaa
b10001110010001010000000000000000 aae

#327000
1aaa

#327500
0aaa
b111100000001000001000000000000 aae
1aaf

#328000
1aaa

#328500
0aaa
0aad

#329000
1aaa

#329500
0aaa

#330000
1aaa

#330500
0aaa
1aal
b100000001000000001000000011000 aam
b1111 aan
1aar
b100 aat
1aaz

#331000
1aaa

#331500
0aaa
0aal
b0 aam
b0 aan
0aar
b0 aat
0aaz

#332000
1aaa

#332500
0aaa

#333000
1aaa

#333500
0aaa
1abj
b100000001000000001000000011000 abk
b0 abo

#334000
1aaa

#334500
0aaa
1abb
0abi
0abj

#335000
1aaa

#335500
0aaa
0abb
1abi

#336000
1aaa

#336500
0aaa

#337000
1aaa

#337500
0aaa
1aad
b0 aae
1aaj

#338000
1aaa

#338500
0aaa
0aad

#339000
1aaa

#339500
0aaa
1aal
b100000001000000001000000000000 aam
b1111 aan
b100 aaq
1aar
b100 aat
1aaz

#340000
1aaa

#340500
0aaa
0aal
b0 aam
b0 aan
b0 aaq
0aar
b0 aat
0aaz

#341000
1aaa

#341500
0aaa

#342000
1aaa

#342500
0aaa
1abj
b100000001000000001000000000000 abk
b100 abo

#343000
1aaa

#343500
0aaa
1abb
0abi
0abj

#344000
1aaa

#344500
0aaa
0abb
1abi

#345000
1aaa

#345500
0aaa

#346000
1aaa

#346500
0aaa
1aad

#347000
1aaa

#347500
0aaa
0aad

#348000
1aaa

#348500
0aaa
1aal
b100000001000000001000000011100 aam
b1111 aan
1aar
b100 aat
1aaz

#349000
1aaa

#349500
0aaa
0aal
b0 aam
b0 aan
0aar
b0 aat
0aaz

#350000
1aaa

#350500
0aaa

#351000
1aaa

#351500
0aaa
1abj
b100000001000000001000000011100 abk
b0 abo

#352000
1aaa

#352500
0aaa
1abb
0abi
0abj

#353000
1aaa

#353500
0aaa
0abb
1abi

#354000
1aaa

#354500
0aaa

#355000
1aaa

#355500
0aaa
1aad

#356000
1aaa

#356500
0aaa
0aad

#357000
1aaa

#357500
0aaa
1aal
b100000001000000001000000000100 aam
b1111 aan
b100000000 aaq
1aar
b100 aat
1aaz

#358000
1aaa

#358500
0aaa
0aal
b0 aam
b0 aan
b0 aaq
0aar
b0 aat
0aaz

#359000
1aaa

#359500
0aaa

#360000
1aaa

#360500
0aaa
1abj
b100000001000000001000000000100 abk
b100000000 abo

#361000
1aaa

#361500
0aaa
1abb
0abi
0abj

#362000
1aaa

#362500
0aaa
0abb
1abi

#363000
1aaa

#363500
0aaa

#364000
1aaa

#364500
0aaa
1aad

#365000
1aaa

#365500
0aaa
0aad

#366000
1aaa

#366500
0aaa
1aal
b10000000000011111111111000000 aam
b1111 aan
b110000001000000000000000100000 aaq
1aar
b100 aat
1aaz

#367000
1aaa

#367500
0aaa
0aal
b0 aam
b0 aan
b0 aaq
0aar
b0 aat
0aaz

#368000
1aaa

#368500
0aaa

#369000
1aaa

#369500
0aaa

#370000
1aaa

#370500
0aaa

#371000
1aaa

#371500
0aaa

#372000
1aaa

#372500
0aaa

#373000
1aaa

#373500
0aaa
1aad

#374000
1aaa

#374500
0aaa
0aad

#375000
1aaa

#375500
0aaa
1aal
b100000001000000001001000010000 aam
b1111 aan
1aar
b100 aat
1aaz

#376000
1aaa

#376500
0aaa
0aal
b0 aam
b0 aan
0aar
b0 aat
0aaz

#377000
1aaa

#377500
0aaa

#378000
1aaa

#378500
0aaa
1abj
b100000001000000001001000010000 abk
b0 abo

#379000
1aaa

#379500
0aaa
1abb
0abi
0abj

#380000
1aaa

#380500
0aaa
0abb
1abi

#381000
1aaa

#381500
0aaa

#382000
1aaa

#382500
0aaa
1aad

#383000
1aaa

#383500
0aaa
0aad

#384000
1aaa

#384500
0aaa
1aal
b100000001000000001001000001000 aam
b1111 aan
b100000001000000000010000000000 aaq
1aar
b100 aat
1aaz

#385000
1aaa

#385500
0aaa
0aal
b0 aam
b0 aan
b0 aaq
0aar
b0 aat
0aaz

#386000
1aaa

#386500
0aaa

#387000
1aaa

#387500
0aaa
1abj
b100000001000000001001000001000 abk
b100000001000000000010000000000 abo

#388000
1aaa

#388500
0aaa
1abb
0abi
0abj

#389000
1aaa

#389500
0aaa
0abb
1abi

#390000
1aaa

#390500
0aaa

#391000
1aaa

#391500
0aaa
1aad

#392000
1aaa

#392500
0aaa
0aad

#393000
1aaa

#393500
0aaa
1aal
b100000001000000001001000010100 aam
b1111 aan
1aar
b100 aat
1aaz

#394000
1aaa

#394500
0aaa
0aal
b0 aam
b0 aan
0aar
b0 aat
0aaz

#395000
1aaa

#395500
0aaa

#396000
1aaa

#396500
0aaa
1abj
b100000001000000001001000010100 abk
b0 abo

#397000
1aaa

#397500
0aaa
1abb
0abi
0abj

#398000
1aaa

#398500
0aaa
0abb
1abi

#399000
1aaa

#399500
0aaa

#400000
1aaa

#400500
0aaa
1aad

#401000
1aaa

#401500
0aaa
0aad

#402000
1aaa

#402500
0aaa
1aal
b100000001000000001001000001100 aam
b1111 aan
b110000001000000000000000100000 aaq
1aar
b100 aat
1aaz

